Marcos Vinícius Santos
8712362
Neurologia
22/01/1955
(31)9 9992-4791
1
2
3
13:00

Ana Paula Soares
9182732
Neurologia
13/07/1957
(31)9 9327-2182
3
4
5
08:00

João Paulo da Costa
7171291
Psiquiatria
11/10/1964
(31)9 8267-4927
2
3
4
15:00

Maria Alice Ferreira
3369128
Psiquiatria
07/01/1966
(31)9 9948-1144
4
5
6
11:00

Joaquim Teixeira Alves
3329948
Clínico Geral
13/12/1970
(31)9 9956-6325
6
7
1
16:00

Luiza Gomes dos Anjos
7845512
Clínico Geral
08/08/1982
(31)9 8451-9965
1
2
3
09:00

Henrique Vasconcelos
6629851
Pediatria
17/02/1977
(31)9 9488-1311
2
3
4
10:00

Natália Ferreira
4496857
Pediatria
31/12/1985
(31)9 8531-2270
4
5
6
14:00

Pedro Henrique Pereira
1125583
Urologia
12/08/1962
(31)9 8922-1283
4
5
6
12:00

Carlos Moreira Costa
5649844
Urologia
26/09/1966
(31)9 9121-1289
6
7
1
07:00

Viviane Souza
6851571
Geriatria
23/04/1983
(31)9 8167-1990
1
2
3
14:00

Júlia Garcia Lopes
3213848
Geriatria
17/03/1984
(31)9 8189-0019
3
4
5
10:00

